[
	{
		"name": "Contessa",
		"actions": [
			"Blocks assassination"
		],
		"frontMarkerId": 0,
		"backMarkerId": 0,
	},
	{
		"name": "Captain",
		"actions": [
			"Steal 2 coins from another player",
			"Blocks stealing",
		],
		"frontMarkerId": 0,
		"backMarkerId": 0,
	},
	{
		"name": "Ambassador",
		"actions": [
			"Exchange cards with Court Deck",
			"Blocks stealing",
		],
		"frontMarkerId": 0,
		"backMarkerId": 0,
	},
	{
		"name": "Duke",
		"actions": [
			"Take 3 cards from Treasury",
			"Blocks Foreign Aid",
		],
		"frontMarkerId": 0,
		"backMarkerId": 0,
	},
	{
		"name": "Assassin",
		"actions": [
			"Pay 3 coins to assassinate another player",
		],
		"frontMarkerId": 0,
		"backMarkerId": 0,
	},
]